{
  "TransID": {
    "precision": 1.0,
    "recall": 1.0,
    "f1-score": 1.0,
    "support": 12
  },
  "payDate": {
    "precision": 1.0,
    "recall": 1.0,
    "f1-score": 1.0,
    "support": 2
  },
  "name": {
    "precision": 0.9705882352941176,
    "recall": 1.0,
    "f1-score": 0.9850746268656716,
    "support": 33
  },
  "amount": {
    "precision": 0.92,
    "recall": 1.0,
    "f1-score": 0.9583333333333334,
    "support": 23
  },
  "pin": {
    "precision": 1.0,
    "recall": 1.0,
    "f1-score": 1.0,
    "support": 21
  },
  "dispReason": {
    "precision": 1.0,
    "recall": 1.0,
    "f1-score": 1.0,
    "support": 35
  },
  "mercahntID": {
    "precision": 1.0,
    "recall": 1.0,
    "f1-score": 1.0,
    "support": 2
  },
  "date": {
    "precision": 1.0,
    "recall": 1.0,
    "f1-score": 1.0,
    "support": 12
  },
  "payBalance": {
    "precision": 1.0,
    "recall": 1.0,
    "f1-score": 1.0,
    "support": 22
  },
  "disputeFraction": {
    "precision": 1.0,
    "recall": 1.0,
    "f1-score": 1.0,
    "support": 11
  },
  "card4d": {
    "precision": 1.0,
    "recall": 1.0,
    "f1-score": 1.0,
    "support": 21
  },
  "disputeRecord": {
    "precision": 1.0,
    "recall": 1.0,
    "f1-score": 1.0,
    "support": 9
  },
  "merchant": {
    "precision": 1.0,
    "recall": 1.0,
    "f1-score": 1.0,
    "support": 2
  },
  "case": {
    "precision": 0.95,
    "recall": 0.8636363636363636,
    "f1-score": 0.9047619047619048,
    "support": 22
  },
  "micro avg": {
    "precision": 0.9824561403508771,
    "recall": 0.986784140969163,
    "f1-score": 0.9846153846153846,
    "support": 227
  },
  "macro avg": {
    "precision": 0.9886134453781512,
    "recall": 0.9902597402597403,
    "f1-score": 0.9891549903543507,
    "support": 227
  },
  "weighted avg": {
    "precision": 0.9827727390515678,
    "recall": 0.986784140969163,
    "f1-score": 0.9843783755858843,
    "support": 227
  }
}