[
  {
    "text": "Could I talk to Tyrone King?",
    "entities": [
      {
        "start": 16,
        "end": 27,
        "value": "Tyrone King",
        "entity": "name"
      }
    ],
    "predicted_entities": [
      {
        "entity": "name",
        "start": 16,
        "end": 28,
        "confidence_entity": 0.7530999181700956,
        "value": "Tyrone King?",
        "extractor": "CRFEntityExtractor"
      },
      {
        "entity": "name",
        "start": 16,
        "end": 28,
        "value": "Tyrone King?",
        "extractor": "DIETClassifier"
      }
    ]
  },
  {
    "text": "My name is Arjun and my card number is 2345 and I want to make payment of $480",
    "entities": [
      {
        "start": 11,
        "end": 16,
        "value": "Arjun",
        "entity": "name"
      },
      {
        "start": 39,
        "end": 43,
        "value": "2345",
        "entity": "card4d"
      },
      {
        "start": 75,
        "end": 78,
        "value": "480",
        "entity": "amount"
      }
    ],
    "predicted_entities": [
      {
        "entity": "name",
        "start": 11,
        "end": 16,
        "confidence_entity": 0.9606159142606139,
        "value": "Arjun",
        "extractor": "CRFEntityExtractor"
      },
      {
        "entity": "card4d",
        "start": 39,
        "end": 43,
        "confidence_entity": 0.8726702649448177,
        "value": "2345",
        "extractor": "CRFEntityExtractor"
      },
      {
        "entity": "amount",
        "start": 74,
        "end": 78,
        "confidence_entity": 0.8972236216431927,
        "value": "$480",
        "extractor": "CRFEntityExtractor"
      },
      {
        "entity": "name",
        "start": 11,
        "end": 16,
        "value": "Arjun",
        "extractor": "DIETClassifier"
      },
      {
        "entity": "card4d",
        "start": 39,
        "end": 43,
        "value": "2345",
        "extractor": "DIETClassifier"
      },
      {
        "entity": "amount",
        "start": 74,
        "end": 78,
        "value": "$480",
        "extractor": "DIETClassifier"
      }
    ]
  },
  {
    "text": "$1678.50",
    "entities": [
      {
        "start": 1,
        "end": 8,
        "value": "1678.50",
        "entity": "amount"
      }
    ],
    "predicted_entities": [
      {
        "entity": "amount",
        "start": 0,
        "end": 8,
        "confidence_entity": 0.8972194967823295,
        "value": "$1678.50",
        "extractor": "CRFEntityExtractor"
      },
      {
        "entity": "amount",
        "start": 0,
        "end": 8,
        "value": "$1678.50",
        "extractor": "DIETClassifier"
      }
    ]
  },
  {
    "text": "dispute a transaction",
    "entities": [],
    "predicted_entities": [
      {
        "entity": "case",
        "start": 0,
        "end": 7,
        "value": "dispute",
        "extractor": "DIETClassifier"
      }
    ]
  }
]