{
  "TransID": {
    "precision": 1.0,
    "recall": 1.0,
    "f1-score": 1.0,
    "support": 12
  },
  "payDate": {
    "precision": 1.0,
    "recall": 1.0,
    "f1-score": 1.0,
    "support": 2
  },
  "name": {
    "precision": 0.9705882352941176,
    "recall": 1.0,
    "f1-score": 0.9850746268656716,
    "support": 33
  },
  "amount": {
    "precision": 0.92,
    "recall": 1.0,
    "f1-score": 0.9583333333333334,
    "support": 23
  },
  "pin": {
    "precision": 1.0,
    "recall": 1.0,
    "f1-score": 1.0,
    "support": 21
  },
  "dispReason": {
    "precision": 1.0,
    "recall": 1.0,
    "f1-score": 1.0,
    "support": 35
  },
  "mercahntID": {
    "precision": 1.0,
    "recall": 1.0,
    "f1-score": 1.0,
    "support": 2
  },
  "date": {
    "precision": 1.0,
    "recall": 1.0,
    "f1-score": 1.0,
    "support": 12
  },
  "payBalance": {
    "precision": 1.0,
    "recall": 1.0,
    "f1-score": 1.0,
    "support": 22
  },
  "disputeFraction": {
    "precision": 1.0,
    "recall": 1.0,
    "f1-score": 1.0,
    "support": 11
  },
  "card4d": {
    "precision": 1.0,
    "recall": 1.0,
    "f1-score": 1.0,
    "support": 21
  },
  "disputeRecord": {
    "precision": 1.0,
    "recall": 1.0,
    "f1-score": 1.0,
    "support": 9
  },
  "merchant": {
    "precision": 1.0,
    "recall": 1.0,
    "f1-score": 1.0,
    "support": 2
  },
  "case": {
    "precision": 0.9565217391304348,
    "recall": 1.0,
    "f1-score": 0.9777777777777777,
    "support": 22
  },
  "micro avg": {
    "precision": 0.9826839826839827,
    "recall": 1.0,
    "f1-score": 0.9912663755458515,
    "support": 227
  },
  "macro avg": {
    "precision": 0.9890792838874681,
    "recall": 1.0,
    "f1-score": 0.9943704098554845,
    "support": 227
  },
  "weighted avg": {
    "precision": 0.9834048018747817,
    "recall": 1.0,
    "f1-score": 0.991454803807687,
    "support": 227
  }
}